<?xml version="1.0" encoding="utf-8"?>
<!-- Generator: Adobe Illustrator 21.1.0, SVG Export Plug-In . SVG Version: 6.00 Build 0)  -->
<svg version="1.1" id="Layer_1" xmlns="http://www.w3.org/2000/svg" xmlns:xlink="http://www.w3.org/1999/xlink" x="0px" y="0px"
	 viewBox="0 0 20 20" style="enable-background:new 0 0 20 20;" xml:space="preserve">
<style type="text/css">
	.st0{fill:#3C5A9A;}
</style>
<path class="st0" d="M11.4,19.3v-8.5h2.9l0.4-3.3h-3.3V5.4c0-1,0.3-1.6,1.6-1.6l1.8,0v-3c-0.3,0-1.3-0.1-2.6-0.1
	C9.8,0.7,8,2.2,8,5.1v2.4H5.2v3.3H8v8.5L11.4,19.3L11.4,19.3z"/>
</svg>
