<?xml version="1.0" encoding="utf-8"?>
<!-- Generator: Adobe Illustrator 21.1.0, SVG Export Plug-In . SVG Version: 6.00 Build 0)  -->
<svg version="1.1" id="Layer_1" xmlns="http://www.w3.org/2000/svg" xmlns:xlink="http://www.w3.org/1999/xlink" x="0px" y="0px"
	 viewBox="0 0 90 90" style="enable-background:new 0 0 90 90;" xml:space="preserve">
<style type="text/css">
	.st0{fill:#EB721C;}
</style>
<g>
	<path class="st0" d="M65.2,79.4c-0.2,0-0.3-0.1-0.4-0.2c-0.7-0.9-1.4-1.8-2.1-2.6c-0.1-0.1-0.1-0.2-0.1-0.4
		c0.2-0.5,0.4-1.1,0.6-1.7l0.4-1.1l-1.7,0c-0.2,0-0.4,0-0.6,0c-0.2,0-0.4,0-0.6,0c-0.3,0-0.4,0-0.6-0.1c-0.3-0.1-0.5-0.5-0.8-0.9
		c-0.1-0.2-0.2-0.3-0.3-0.5c-0.1-0.1-0.2-0.2-0.3-0.4c-0.2-0.3-0.5-0.5-0.5-0.8c-0.1-0.3,0.2-0.8,0.4-1.1l0.1-0.1
		c0.5-0.9,0.1-1.6-0.3-2.2c-0.5-0.8-1.1-1.1-1.8-1.1c-0.3,0-0.7,0.1-1,0.3c-0.2,0.1-0.3,0.1-0.5,0.1c-0.2,0-0.5-0.1-0.8-0.6
		c-0.2-0.4-0.5-0.7-0.8-1c-0.2-0.2-0.4-0.5-0.6-0.7c-0.1-0.1-0.1-0.3-0.1-0.4c0.1-0.4,0.3-0.8,0.4-1.2c0.1-0.4,0.3-0.8,0.4-1.2
		c0.1-0.3,0-0.7-0.1-0.9c-0.5-0.7-1.1-1.4-1.8-2.2c-0.2-0.2-0.5-0.3-0.7-0.3l-0.1,0c-0.7,0.1-1.5,0.3-2.4,0.6c0,0-0.1,0-0.1,0
		c0,0-0.1,0-0.1-0.1c-0.2-0.3-0.4-0.6-0.7-0.8c-0.3-0.3-0.6-0.7-0.8-1c-0.1-0.1-0.1-0.3-0.1-0.4c0.1-0.6,0.2-1.1,0.3-1.7l0.2-1
		l-0.3,0c-0.2,0-0.4,0-0.6,0c-0.4,0-0.8-0.1-1.1-0.1c0,0-0.3,0-0.3,0c-0.6,0-0.9-0.2-1.2-0.6c-0.1-0.1-0.2-0.2-0.2-0.3L43,52.4
		l-1.9,1.5l-3.9-3.7c-0.5-0.5-1.1-1-1.6-1.5c-0.2-0.2-0.5-0.3-0.8-0.3c-0.6,0.1-1.1,0.1-1.7,0.1c-8.7,0-16.3-6.5-17.6-15
		c-1.5-9.7,5.2-18.9,14.9-20.4c0.9-0.1,1.9-0.2,2.8-0.2c8.7,0,16.2,6.2,17.7,14.8c0.5,2.7,0.3,5.4-0.5,8c-0.1,0.4-0.1,0.8,0.2,1.1
		c1,1.6,2,3.2,3,4.8l0.8,1.3l0.1,0.2l-1.8,1.5l0.8,0.9c0.4,0.5,0.8,1,1.2,1.5L68,63.3c2.2,2.7,4.4,5.3,6.5,8
		c0.2,0.2,0.2,0.3,0.1,0.6c-0.6,2.3-1.2,4.6-1.8,6.9c-0.1,0.2-0.1,0.2-0.3,0.2C70.1,79.2,67.7,79.3,65.2,79.4L65.2,79.4z M65.8,72.3
		c-0.3,0.8-0.5,1.6-0.8,2.3c-0.5,1.1-0.3,2,0.5,2.7c0.1,0.1,0.4,0.3,0.7,0.3c0.8,0,1.5-0.1,2.3-0.1c0.7,0,1.4-0.1,2.2-0.1
		c0.5,0,0.7-0.2,0.8-0.7c0.3-1.4,0.7-2.7,1.1-4.1c0.1-0.4,0.1-0.8-0.3-1.2c-3.1-3.8-6.2-7.6-9.4-11.5L51.8,46.3
		c-0.4-0.5-0.8-1-1.2-1.5l-0.4-0.5l2-1.6c0,0-0.3-0.5-0.4-0.6l-0.8-1.2c-0.9-1.4-1.7-2.7-2.6-4.1c-0.2-0.2-0.2-0.4-0.1-0.7
		c1.6-4.6,1.3-9.1-1.1-13.2c-2.9-5.2-8.2-8.3-14.1-8.3c-0.7,0-1.5,0-2.2,0.1c-0.6,0.1-1.2,0.2-1.8,0.3c-0.3,0.1-0.6,0.1-0.9,0.2
		L28,15.3l0.3,0.5c0,0.1,0.1,0.1,0.1,0.1l0.9,1.1c1.5,1.9,3.1,3.8,4.6,5.6c0.1,0.1,0.3,0.3,0.5,0.4l1.7,0.8c0.9,0.4,1.8,0.8,2.6,1.2
		c0.2,0.1,0.4,0.3,0.6,0.4c0.9,1,1.7,2.1,2.5,3.1c0.2,0.2,0.4,0.3,0.6,0.3c0.1,0,0.2,0,0.2,0c0.4-0.1,0.8-0.1,1.2-0.1
		c0.1,0,0.2,0,0.3,0c1.5,0.2,2.6,1.5,2.6,3c-0.1,1.6-1.3,2.9-2.8,3c-0.1,0-0.2,0-0.2,0c-1.5,0-2.8-1-3-2.5c-0.1-0.8,0-1.6,0.5-2.4
		l0.1-0.2l-0.8-0.9c-0.7-0.9-1.4-1.7-2.1-2.6c-0.1-0.2-0.3-0.3-0.5-0.3l-1.6-0.7c-0.9-0.4-1.9-0.8-2.8-1.3c-0.2-0.1-0.4-0.2-0.5-0.4
		c-0.6-0.7-1.2-1.5-1.8-2.2L30,19.7c-0.9-1.1-1.8-2.3-2.8-3.4c-0.1-0.2-0.4-0.3-0.6-0.3h-0.1l-0.1,0c-0.7,0.4-1.3,0.7-2,1.1
		l-0.9,0.5l0.3,0.4c0.1,0.1,0.1,0.1,0.1,0.2l3.6,4.4c3.8,4.7,7.6,9.4,11.4,14.1c0.1,0.1,0.3,0.3,0.6,0.3c0.1,0,0.2,0,0.3-0.1
		c0.3-0.1,0.6-0.1,0.9-0.1c1.1,0,2.1,0.6,2.7,1.6c0.7,1.3,0.3,2.8-0.8,3.8c-0.5,0.4-1.2,0.7-1.9,0.7c-0.7,0-1.4-0.3-2-0.7
		c-1.1-0.9-1.4-2.5-0.7-3.8c0.3-0.5,0.1-0.8-0.1-1L23.7,19.8c-0.2-0.2-0.4-0.5-0.6-0.7l-0.5-0.6L20,21.3l0.7,0.8l1,1.3
		c1,1.2,2,2.5,3,3.8c0.1,0.2,0.2,0.5,0.3,0.7c0.1,1,0.1,2,0.1,3c0,0.8,0.1,1.6,0.1,2.3c0,0.3,0.1,0.6,0.3,0.8
		c0.3,0.4,0.6,0.8,0.9,1.2c0.3,0.4,0.7,0.8,1,1.2c0.1,0.2,0.4,0.4,0.7,0.4c0.1,0,0.2,0,0.4-0.1c0.3-0.1,0.6-0.1,0.9-0.1
		c1.3,0,2.5,0.8,2.9,2c0.5,1.6-0.3,3.3-1.8,3.8c-0.3,0.1-0.7,0.2-1,0.2c-1.3,0-2.4-0.7-2.8-1.9c-0.4-1-0.3-1.9,0.3-3l0.1-0.2l-0.8-1
		c-0.6-0.8-1.3-1.6-1.9-2.3c-0.1-0.1-0.2-0.4-0.2-0.6l0-0.8c-0.1-1.1-0.1-2.2-0.1-3.2c0-1.3-0.3-2.3-1.2-3.3
		c-0.7-0.8-1.4-1.7-2.1-2.6c-0.3-0.4-0.6-0.8-0.9-1.2l-0.3-0.3l-0.3,0.5C19,23,19,23.1,18.9,23.1c-3.6,6.5-1.9,15,3.8,19.7
		c3.1,2.5,6.5,3.8,10.4,3.8c0.8,0,1.6-0.1,2.4-0.2c0,0,0.1,0,0.1,0c0.1,0,0.2,0,0.4,0.2c0.9,0.9,1.9,1.8,2.8,2.7l2.3,2.2l2-1.6
		l0.2,0.3c0.4,0.5,0.7,0.9,1.1,1.3c0.2,0.2,0.5,0.4,0.8,0.4c0.6,0,1.2,0.1,1.8,0.1l0.9,0c0.3,0,0.6,0,0.9,0.1l0.2,0
		c0,0.1,0,0.2,0,0.3c0,0-0.5,2.6-0.6,3.3c0,0.3-0.1,0.6,0.1,0.9c0.1,0.2,0.3,0.2,0.6,0.2c0.1,0,0.3,0,0.4-0.1l0.6-0.1
		c0.5-0.1,1.1-0.2,1.6-0.4c0,0,0.1,0,0.1,0c0,0,0.1,0,0.2,0.1c1.2,1.4,2.3,2.9,3.5,4.3c0.1,0.1,0.1,0.2,0.1,0.3
		c-0.3,0.8-0.6,1.7-0.9,2.5c-0.1,0.3,0,0.6,0.1,0.8c0.2,0.2,0.4,0.4,0.7,0.4c0.1,0,0.1,0,0.2,0c0.2-0.1,0.4-0.1,0.7-0.2
		c0.4-0.1,0.7-0.2,1.1-0.3c0,0,0,0,0,0c0.1,0,0.2,0.1,0.3,0.1c1,1.1,1.9,2.3,3,3.6c0,0,0.1,0.2,0,0.3c-0.1,0.4-0.3,0.8-0.4,1.3
		L60.3,70c-0.1,0.3,0,0.7,0.2,1.1c0.2,0.3,0.6,0.5,1,0.5c0.4,0,2.1,0,2.1,0l2.5,0C66,71.9,65.9,72.1,65.8,72.3z M40.8,38
		c-1,0-1.9,0.8-1.9,1.9c0,0.5,0.2,1,0.6,1.3c0.4,0.4,0.9,0.6,1.4,0.6c1.1,0,1.9-0.8,1.9-1.9C42.7,38.8,41.8,38,40.8,38L40.8,38z
		 M29.3,37.7c-1,0-1.9,0.9-1.9,1.9c0,0.5,0.2,1,0.5,1.3c0.4,0.4,0.8,0.6,1.3,0.6c1.1,0,1.9-0.8,1.9-1.9c0-0.5-0.2-1-0.5-1.4
		C30.3,37.9,29.8,37.7,29.3,37.7L29.3,37.7z M43.7,29.8c-1.1,0-1.9,0.8-1.9,1.9c0,1,0.8,1.9,1.9,1.9c0.5,0,1-0.2,1.4-0.6
		c0.4-0.4,0.5-0.8,0.5-1.3C45.6,30.7,44.8,29.8,43.7,29.8L43.7,29.8L43.7,29.8z"/>
	<path class="st0" d="M62.5,64.3c-0.2,0-0.4-0.2-0.5-0.3c-0.5-0.6-1-1.3-1.6-1.9l-10-12.3c-0.1-0.1-0.1-0.2-0.2-0.2
		c-0.2-0.3-0.2-0.6,0-0.8c0.1-0.1,0.2-0.1,0.4-0.1c0.2,0,0.3,0.1,0.4,0.2c0.4,0.5,0.8,1,1.2,1.5l0.8,1c3.2,4,6.4,7.9,9.7,11.9
		c0.1,0.1,0.2,0.3,0.3,0.4c0,0,0.1,0.1,0.1,0.1c0,0-0.1,0.1-0.1,0.1c-0.1,0.2-0.3,0.3-0.4,0.4C62.6,64.3,62.5,64.3,62.5,64.3z"/>
	<path class="st0" d="M69.5,72.9c-0.2,0-0.4-0.2-0.5-0.3c-0.7-0.9-3.3-4-3.3-4c-0.4-0.5-0.9-1.1-1.3-1.6c-0.2-0.2-0.2-0.4-0.2-0.6
		c0-0.1,0.1-0.2,0.2-0.3c0.1-0.1,0.2-0.1,0.3-0.1c0.2,0,0.4,0.1,0.6,0.3l0.3,0.4c1.4,1.7,2.7,3.3,4.1,5c0.1,0.1,0.2,0.3,0.3,0.5
		c0,0,0.1,0.1,0.1,0.2c0,0-0.1,0.1-0.1,0.1c-0.1,0.2-0.3,0.3-0.4,0.4C69.6,72.9,69.5,72.9,69.5,72.9z"/>
</g>
</svg>
